{
  "celery": {
    "task_serializer": "json",
    "result_serializer": "json",
    "timezone": "Europe/Prague",
    "accept_content": [
      "json"
    ],
    "broker_url": "redis://sam.tensorcloud.cz:6379/0",
    "result_backend": "redis://sam.tensorcloud.cz:6379/1"
    }
}

